example.vcd
$date
	Tue Jul 16 22:45:03 2019
$end
$version
	ModelSim Version 10.5b
$end
$timescale
	1ns
$end

$scope module encoder_8b_10b_testbench $end
$var wire 1 ! clk_i $end
$var wire 1 " rst_i $end
$var wire 1 # datain [7] $end
$var wire 1 $ datain [6] $end
$var wire 1 % datain [5] $end
$var wire 1 & datain [4] $end
$var wire 1 ' datain [3] $end
$var wire 1 ( datain [2] $end
$var wire 1 ) datain [1] $end
$var wire 1 * datain [0] $end
$var wire 1 + rd_in [1] $end
$var wire 1 , rd_in [0] $end
$var wire 1 - dataout [9] $end
$var wire 1 . dataout [8] $end
$var wire 1 / dataout [7] $end
$var wire 1 0 dataout [6] $end
$var wire 1 1 dataout [5] $end
$var wire 1 2 dataout [4] $end
$var wire 1 3 dataout [3] $end
$var wire 1 4 dataout [2] $end
$var wire 1 5 dataout [1] $end
$var wire 1 6 dataout [0] $end
$var wire 1 7 dataout_valid $end
$var wire 1 8 rd_out [1] $end
$var wire 1 9 rd_out [0] $end
$var wire 1 : dataout_kerr $end
$var wire 1 ; datain_k $end
$var wire 1 < datain_valid $end
$upscope $end
$enddefinitions $end
#0
$dumpvars
0!
0"
07
0:
x;
x<
x#
x$
x%
x&
x'
x(
x)
x*
1+
0,
0-
0.
0/
00
01
02
03
04
05
06
18
09
$end
#5
1!
#6
1<
1;
1#
0$
1%
1&
1'
1(
0)
0*
1"
19
08
#10
0!
#15
1!
17
14
13
12
11
10
1.
#16
1*
0'
0&
0%
1$
0;
09
18
#20
0!
#25
1!
16
03
02
00
1/
#26
0+
1,
1;
0$
1%
1&
1'
0*
19
08
09
18
#30
0!
#35
1!
15
04
01
0.
1-
#36
1*
0'
0&
0%
1$
0;
19
08
#40
0!
#45
1!
05
14
11
1.
0-
#46
0<
1;
0$
1%
1&
1'
0*
#50
0!
#55
1!
1:
07
#56
1*
0'
0&
0%
1$
0;
#60
0!
#65
1!
0:
